…
``` r
df %>% 
  mutate(mask_count = as.numeric(mask_count))
```

    ## # A tibble: 23 × 3
    ##    date      mask_count no_mask_count
    ##    <chr>          <dbl>         <dbl>
    ##  1 7/12/2020         26            10
    ##  2 7/13/2020         20             9
    ##  3 7/14/2020         20             9
    ##  4 7/15/2020         21            10
    ##  5 7/16/2020         20            10
    ##  6 7/17/2020         20             9
    ##  7 7/18/2020         21             9
    ##  8 7/19/2020         20             9
    ##  9 7/20/2020         21             8
    ## 10 7/21/2020         22             8
    ## # … with 13 more rows
…
